Nom colonne;pos;description
;(1,4);Biacromial diameter
;(6,9);Biiliac diameter
;(11,14);Bitrochanteric diameter
;(16,19);Chest depth between spine and sternum at nipple level
;(21,24);Chest diameter at nipple level, mid expiration
;(26,29);Elbow diameter, sum of two elbows
;(31,34);Wrist diameter, sum of two wrists
;(36,39);Knee diameter, sum of two knees
;(41,44);Ankle diameter, sum of two ankles
;(46,50);Shoulder girth over deltoid muscles
;(52,56);Chest girth, nipple line in males and just above breast tissue in females, midexpiration
;(58,62);Waist girth, narrowest part of torso below the rib cage, average of contracted and relaxed position
;(64,68);Navel girth at umbilicus and iliac crest,iliac crest as a landmark
;(70,74);Hip girth at level of bitrochanteric diameter
;(76,79);Thigh girth below gluteal fold, average of right and left girths
;(81,84);Bicep girth, flexed, average of right and left girths
;(86,89);Forearm girth, extended, palm up, average of right and left girths
;(91,94);Knee girth over patella, slightly flexed position, average of right and left girths
;(96,99);Calf maximum girth, average of right and left girths
;(101,104);Ankle minimum girth, average of right and left girths
;(106,109);Wrist minimum girth, average of right and left girths
;(111,114);Age (years)
;(116,120);Weight (kg)
;(122,126);Height (cm)
;(128,128);Gender (1 male, 0 female)